{

  "0" : {

    "link" : "http://www.gearbest.com/rc-quadcopters/pp_193218.html",
    "imagem" : "http://gloimg.gearbest.com/gb/2015/201506/goods-img/1487110933966523902.jpg",
    "nome": "Toys & Hobbies Remote Control Toys RC Quadcopters SYMA X8W WiFi FPV Headless Mode 2.4G Remote Control Quadcopter with HD 0.3MP Camera 6 Axis Gyro 3D Roll Stumbling UFO  -  WHITE ",
    "preco": 72.50

  },

  "1" : {

    "link": "http://www.gearbest.com/rc-quadcopters/pp_193049.html",
    "imagem": "http://gloimg.gearbest.com/gb/2015/201506/goods-img/1487895308162535158.jpg",
    "nome": "MJX X600 Headless Mode 2.4G Remote Control Hexacopter 6 Axis Gyro 3D Roll Stumbling UFO  -  BLACK",
    "preco": 57.44

  },

  "2" : {

    "link": "http://www.gearbest.com/rc-quadcopters/pp_186258.html",
    "imagem": "http://gloimg.gearbest.com/gb/pdm-product-pic/Electronic/2017/02/19/goods-img/1487442363354640758.jpg",
    "nome": "JJRC H8 Mini Headless Mode 2.4G 4CH RC Quadcopter 6 Axis Gyro 3D Flip UFO One Key Return Aircraft  -  WHITE",
    "preco": 13.12

  },

  "3" : {

    "link": "http://www.gearbest.com/rc-quadcopters/pp_603955.html?wid=21",
    "imagem": "http://gloimg.gearbest.com/gb/pdm-product-pic/Electronic/2017/01/11/goods-img/1489020542044822179.jpg",
    "nome": "JJRC H37 ELFIE - LOVE Foldable Mini RC Selfie Drone  -  PINK ",
    "preco": 40.89

  },

  "4" : {

    "link": "http://www.gearbest.com/rc-quadcopters/pp_217767.html",
    "imagem": "http://gloimg.gearbest.com/gb/2015/201509/goods-img/1487895668805457295.jpg",
    "nome": "JJRC H18 6 Axis Gyro Mini RC Hexacopter  -  ORANGE",
    "preco": 19.55

  },

  "5" : {

    "link": "http://www.gearbest.com/rc-quadcopters/pp_245988.html",
    "imagem": "http://gloimg.gearbest.com/gb/2015/201509/goods-img/1443466899099-P-3180236.jpg",
    "nome": "JJRC H21 RC Hexacopter  -  BLACK",
    "preco": 31.92

  }

}